<?xml version="1.0" encoding="utf-8"?>
<!-- Generator: Adobe Illustrator 15.1.0, SVG Export Plug-In . SVG Version: 6.00 Build 0)  -->
<!DOCTYPE svg PUBLIC "-//W3C//DTD SVG 1.1//EN" "http://www.w3.org/Graphics/SVG/1.1/DTD/svg11.dtd">
<svg version="1.1" id="Layer_1" xmlns="http://www.w3.org/2000/svg" xmlns:xlink="http://www.w3.org/1999/xlink" x="0px" y="0px"
	 width="254.909px" height="134.715px" viewBox="0 0 254.909 134.715" enable-background="new 0 0 254.909 134.715"
	 xml:space="preserve">
<rect fill-rule="evenodd" clip-rule="evenodd" fill="#FFFFFF" width="254.909" height="134.715"/>
<g>
	<path fill-rule="evenodd" clip-rule="evenodd" fill="#FFFFFF" d="M68.457,5.028c0,13.65,0,27.299,0,40.949
		c-13.65,0-27.3,0-40.949,0c0-6.59,0-13.37,0-20.154c0-6.764-0.641-13.747,0-20.154c0.02-0.201-0.248-0.7,0.32-0.641
		C41.371,5.028,54.913,5.028,68.457,5.028z M27.667,12.546c-0.113,2.576,2.099,4.324,3.839,5.279
		c4.134,2.268,10.231,2.939,16.636,2.239c4.686-0.512,12.373-2.654,12.157-7.518c-0.14-3.16-4.52-5.225-7.198-6.079
		c-3.732-1.188-8.635-1.408-12.157-1.12C35.732,5.776,27.892,7.496,27.667,12.546z M27.667,15.905c0,1.973,0,3.945,0,5.918
		c2.299,4.931,10.83,6.908,19.035,6.398c7.593-0.471,15.644-3.336,13.436-12.477C55.858,24.743,32.161,24.609,27.667,15.905z
		 M35.025,34.939c3.379,1.037,7.306,1.464,10.878,1.28c1.291-0.737,2.167-2.895,3.999-3.2c1.979-0.328,2.771,0.792,4.319,1.6
		c2.221-0.635,3.246-2.049,4.477-3.839c1.4-2.034,2.17-3.535,1.44-7.039c-4.467,8.903-27.995,8.888-32.471,0
		C26.448,31.449,30.082,33.421,35.025,34.939z M51.661,42.457c0.824,0.751,2.924,3.464,4.478,3.359
		c1.12-0.076,2.718-2.642,3.52-3.838c2.221-3.317,3.686-5.728,5.918-8.958c0.726-1.048,2.984-3.468,2.719-4.798
		c-0.217-1.087-2.437-1.854-3.199-1.919c-3.517,4.215-6.232,9.231-9.597,13.596c-1.375-0.815-3.103-4.39-4.959-4.318
		c-1.117,0.043-1.978,1.574-2.559,2.72C49.09,39.739,50.104,41.039,51.661,42.457z M27.667,37.658
		c3.15,5.913,12.573,7.083,21.594,6.079c-0.814-1.639-3.501-2.789-3.838-5.438c-7.961-0.144-14.896-1.313-17.755-6.559
		C27.667,33.713,27.667,35.686,27.667,37.658z"/>
	<path d="M40.944,5.348c3.522-0.289,8.425-0.068,12.157,1.12c2.678,0.854,7.058,2.918,7.198,6.079
		c0.216,4.864-7.471,7.006-12.157,7.518c-6.405,0.7-12.502,0.028-16.636-2.239c-1.74-0.955-3.952-2.703-3.839-5.279
		C27.892,7.496,35.732,5.776,40.944,5.348z"/>
	<path d="M60.139,15.745c2.208,9.14-5.843,12.006-13.436,12.477c-8.206,0.51-16.736-1.467-19.035-6.398c0-1.974,0-3.945,0-5.918
		C32.161,24.609,55.858,24.743,60.139,15.745z"/>
	<path d="M27.667,23.742c4.476,8.888,28.004,8.903,32.471,0c0.729,3.504-0.04,5.005-1.44,7.039c-1.231,1.79-2.256,3.204-4.477,3.839
		c-1.549-0.808-2.34-1.928-4.319-1.6c-1.832,0.305-2.708,2.462-3.999,3.2c-3.572,0.184-7.499-0.243-10.878-1.28
		C30.082,33.421,26.448,31.449,27.667,23.742z"/>
	<path d="M47.982,38.299c0.581-1.146,1.442-2.677,2.559-2.72c1.857-0.071,3.584,3.503,4.959,4.318
		c3.365-4.365,6.081-9.381,9.597-13.596c0.762,0.066,2.982,0.833,3.199,1.919c0.265,1.33-1.994,3.75-2.719,4.798
		c-2.232,3.23-3.697,5.641-5.918,8.958c-0.802,1.197-2.399,3.763-3.52,3.838c-1.554,0.105-3.654-2.607-4.478-3.359
		C50.104,41.039,49.09,39.739,47.982,38.299z"/>
	<path d="M27.667,31.74c2.859,5.246,9.794,6.415,17.755,6.559c0.337,2.65,3.024,3.8,3.838,5.438
		c-9.021,1.004-18.443-0.166-21.594-6.079C27.667,35.686,27.667,33.713,27.667,31.74z"/>
</g>
<g>
	<path fill-rule="evenodd" clip-rule="evenodd" fill="#FFFFFF" d="M121.683,35.427c-1-0.493-3.007,0.019-3.201-1.281
		c-0.717-2.563,2.547-3.816,0-4.804c-1.365-0.527-1.637,1.686-3.524,0.962c-1.844,0.135-0.903-2.513-1.921-3.202
		c-0.429,0-0.854,0-1.282,0c-1.698,0.007-0.265,3.149-1.922,3.202c-1.662,0.928-2.317-0.81-3.522-1.281
		c-2.902,1.698,0.381,2.664-0.319,5.123c-0.192,1.409-2.662,0.539-3.203,1.601c0,0.427,0,0.854,0,1.282
		c0.164,1.544,3.08,0.339,3.203,1.92c0.797,1.532-0.763,2.364-1.283,3.525c0.565,0.29,0.991,0.718,1.283,1.28
		c1.084,0.832,2.008-2.217,3.521-0.958c1.714-0.112,1.066,2.135,1.602,3.202c-10.142,0-20.284,0-30.426,0
		c0-13.666,0-27.331,0-40.997c13.664,0,27.331,0,40.995,0C121.683,15.145,121.683,25.285,121.683,35.427z M81.007,13.008
		c0.134,4.828,9.074,7.007,14.093,7.365c8.082,0.58,20.042-1.449,19.857-7.685c-0.188-6.309-13.59-7.692-20.178-7.046
		C88.233,6.283,80.869,7.951,81.007,13.008z M102.788,28.062c1.276-1.022,2.646-3.108,5.125-1.921
		c0.603-2.066,2.879-2.459,5.766-2.242c1.53-1.245,1.331-4.219,1.279-7.046c-5.362,7.177-28.54,8.31-33.95-0.641
		C79.571,28.725,92.549,28.26,102.788,28.062z M99.583,36.07c-0.67-3.183,2.93-2.883,1.924-5.445
		c-7.822-0.321-17.431-0.688-20.5-6.726C79.65,35.504,89.673,35.731,99.583,36.07z M101.827,43.754
		c0.101-2.834-0.9-4.096-2.883-5.443c-8.128,0.016-14.782-1.448-17.937-6.405C79.507,44.093,91.828,44.131,101.827,43.754z"/>
	<path fill-rule="evenodd" clip-rule="evenodd" d="M94.779,5.643c6.588-0.646,19.99,0.737,20.178,7.046
		c0.186,6.236-11.775,8.265-19.857,7.685c-5.02-0.358-13.959-2.538-14.093-7.365C80.869,7.951,88.233,6.283,94.779,5.643z"/>
	<path fill-rule="evenodd" clip-rule="evenodd" d="M81.007,16.211c5.411,8.951,28.588,7.818,33.95,0.641
		c0.052,2.828,0.251,5.802-1.279,7.046c-2.887-0.218-5.163,0.175-5.766,2.242c-2.479-1.187-3.849,0.899-5.125,1.921
		C92.549,28.26,79.571,28.725,81.007,16.211z"/>
	<path fill-rule="evenodd" clip-rule="evenodd" d="M81.007,23.898c3.069,6.038,12.677,6.405,20.5,6.726
		c1.006,2.562-2.594,2.262-1.924,5.445C89.673,35.731,79.65,35.504,81.007,23.898z"/>
	<path fill-rule="evenodd" clip-rule="evenodd" d="M121.683,35.427c0,0.747,0,1.494,0,2.244c-1.031-0.073-1.354,0.567-2.562,0.319
		c-0.512,0.451-0.818,1.102-0.96,1.922c0.264,1.016,0.933,1.627,1.601,2.24c-0.332,0.843-1.271,1.081-1.601,1.924
		c-0.828-0.454-1.479-1.085-2.241-1.603c-2.049-0.018-2.431,1.629-2.564,3.524c-0.748,0-1.495,0-2.242,0
		c-0.535-1.067,0.113-3.314-1.602-3.202c-1.513-1.259-2.438,1.79-3.521,0.958c-0.292-0.562-0.717-0.99-1.283-1.28
		c0.52-1.161,2.08-1.993,1.283-3.525c-0.123-1.581-3.039-0.376-3.203-1.92c0-0.427,0-0.854,0-1.282
		c0.541-1.062,3.011-0.192,3.203-1.601c0.7-2.459-2.583-3.425,0.319-5.123c1.206,0.472,1.861,2.209,3.522,1.281
		c1.657-0.053,0.224-3.195,1.922-3.202c0.428,0,0.854,0,1.282,0c1.018,0.689,0.077,3.337,1.921,3.202
		c1.888,0.724,2.159-1.489,3.524-0.962c2.547,0.987-0.717,2.24,0,4.804C118.676,35.446,120.683,34.934,121.683,35.427z
		 M115.599,36.39c-0.073-1.975-1.346-3.588-4.166-2.884C103.306,35.536,115.905,44.82,115.599,36.39z"/>
	<path fill-rule="evenodd" clip-rule="evenodd" d="M81.007,31.905c3.154,4.957,9.808,6.421,17.937,6.405
		c1.982,1.347,2.984,2.609,2.883,5.443C91.828,44.131,79.507,44.093,81.007,31.905z"/>
	<path fill-rule="evenodd" clip-rule="evenodd" fill="#FFFFFF" d="M111.434,33.506c2.82-0.704,4.092,0.909,4.166,2.884
		C115.905,44.82,103.306,35.536,111.434,33.506z"/>
	<path fill-rule="evenodd" clip-rule="evenodd" fill="#FFFFFF" d="M121.683,37.671c0,2.776,0,5.552,0,8.327
		c-2.775,0-5.552,0-8.327,0c0.134-1.895,0.516-3.542,2.564-3.524c0.762,0.518,1.413,1.149,2.241,1.603
		c0.33-0.843,1.269-1.081,1.601-1.924c-0.668-0.613-1.337-1.225-1.601-2.24c0.142-0.821,0.448-1.472,0.96-1.922
		C120.329,38.238,120.652,37.598,121.683,37.671z"/>
</g>
<g>
	<path fill-rule="evenodd" clip-rule="evenodd" fill="#FFFFFF" d="M228.128,5.319c0,13.456,0,26.908,0,40.363
		c-13.452,0-26.909,0-40.362,0c0-9.898,0-20.003,0-30.035c0-3.326-0.32-6.817,0-10.012c0.01-0.097-0.123-0.344,0.157-0.315
		C201.328,5.319,214.728,5.319,228.128,5.319z M221.585,12.415c-0.437-2.904-4.319-4.53-7.251-5.44
		c-6.74-2.089-14.715-1.736-20.576,0.552c-2.328,0.908-5.388,2.398-5.677,5.124c-0.291,2.741,2.1,4.24,4.099,5.282
		c3.689,1.925,8.829,2.866,14.428,2.602c2.426-0.115,5.683-0.445,7.41-1.183c1.287-0.549,2.005-2.048,3.943-1.575
		C219.602,16.44,222.051,15.489,221.585,12.415z M188.159,21.794c0.155,0.603,0.732,1.499,1.187,1.972
		c2.289,2.411,6.712,3.739,10.878,4.257c1.575,0.195,3.522,0.526,4.808,0.314c0.614-0.1,1.156-0.862,1.972-1.024
		c0.618-0.124,0.932,0.029,1.576,0c-1.434-1.504-0.202-3.673,0.867-4.493c0.277-0.21,0.812-0.46,0.632-0.632
		c-4.376,0.725-9.352,0.463-13.244-0.472c-3.847-0.921-7.488-2.48-8.675-5.833c-0.002-0.049-0.009-0.095-0.077-0.079
		C188.358,17.868,187.678,19.897,188.159,21.794z M219.537,18.801c0.616,0.566,0.89,1.473,0.866,2.68
		c0.374,0.1,0.689,0.258,1.104,0.313c0.122-1.795,0.141-4.117,0-5.911C221.26,17.265,220.356,17.989,219.537,18.801z M217.09,20.929
		c-1.908,1.636-4.115,2.977-5.989,4.65c1.506,1.067,3.188,2.29,4.65,3.391c0.498,0.375,1.026,1.041,1.498,0.944
		c0.05-0.975-0.101-2.15,0.08-2.995c4.767,0.343,8.063,3.759,7.803,8.356c-0.238,4.224-3.956,7.683-8.354,7.411
		c-4.724-0.29-8.588-4.895-7.018-10.09c0.214-0.709,0.59-1.265,0.553-1.657c-0.813-0.264-1.797-0.359-2.682-0.552
		c-2.095,3.975-0.357,9.167,1.894,11.589c1.689,1.818,3.922,3.197,7.016,3.391c6.062,0.375,10.947-4.024,11.274-9.934
		c0.188-3.408-1.201-6.124-2.917-7.962c-1.851-1.981-4.256-2.963-7.648-3.312C217.148,23.133,217.457,21.694,217.09,20.929z
		 M188.082,29.208c0.417,2.755,3.858,4.396,6.465,5.28c2.83,0.962,6.182,1.454,9.144,1.578c-0.265-2.08,0.171-4.07,0.631-5.678
		c-6.888-0.388-14.077-1.609-16.162-6.699c-0.002-0.049-0.009-0.094-0.077-0.081C188.27,25.649,187.828,27.521,188.082,29.208z
		 M188.159,37.327c0.344,1.347,1.769,2.565,2.919,3.311c3.834,2.489,9.771,3.318,15.689,3.153c-0.949-1.549-2.328-3.35-2.761-5.677
		c-6.783-0.373-13.89-1.681-15.925-6.779C188.331,33.542,187.71,35.545,188.159,37.327z"/>
	<path fill-rule="evenodd" clip-rule="evenodd" d="M217.961,17.776c-1.938-0.473-2.656,1.026-3.943,1.575
		c-1.728,0.738-4.984,1.068-7.41,1.183c-5.599,0.264-10.738-0.676-14.428-2.602c-1.999-1.042-4.39-2.541-4.099-5.282
		c0.289-2.726,3.349-4.216,5.677-5.124c5.861-2.289,13.836-2.641,20.576-0.552c2.932,0.91,6.814,2.536,7.251,5.44
		C222.051,15.489,219.602,16.44,217.961,17.776z"/>
	<path fill-rule="evenodd" clip-rule="evenodd" d="M188.082,15.805c0.068-0.016,0.075,0.029,0.077,0.079
		c1.187,3.353,4.828,4.912,8.675,5.833c3.893,0.935,8.868,1.197,13.244,0.472c0.181,0.171-0.354,0.421-0.632,0.632
		c-1.069,0.82-2.301,2.989-0.867,4.493c-0.645,0.029-0.958-0.124-1.576,0c-0.815,0.162-1.357,0.924-1.972,1.024
		c-1.285,0.211-3.232-0.12-4.808-0.314c-4.166-0.519-8.589-1.847-10.878-4.257c-0.454-0.473-1.031-1.369-1.187-1.972
		C187.678,19.897,188.358,17.868,188.082,15.805z"/>
	<path fill-rule="evenodd" clip-rule="evenodd" d="M221.506,15.884c0.141,1.793,0.122,4.115,0,5.911
		c-0.414-0.055-0.729-0.214-1.104-0.313c0.023-1.208-0.25-2.114-0.866-2.68C220.356,17.989,221.26,17.265,221.506,15.884z"/>
	<path fill-rule="evenodd" clip-rule="evenodd" d="M217.25,24.16c3.393,0.349,5.798,1.331,7.648,3.312
		c1.716,1.838,3.105,4.554,2.917,7.962c-0.327,5.91-5.213,10.309-11.274,9.934c-3.094-0.194-5.326-1.573-7.016-3.391
		c-2.251-2.422-3.988-7.614-1.894-11.589c0.885,0.193,1.868,0.288,2.682,0.552c0.037,0.392-0.339,0.947-0.553,1.657
		c-1.57,5.195,2.294,9.8,7.018,10.09c4.398,0.272,8.116-3.187,8.354-7.411c0.261-4.598-3.036-8.014-7.803-8.356
		c-0.181,0.844-0.03,2.02-0.08,2.995c-0.472,0.096-1-0.57-1.498-0.944c-1.463-1.101-3.145-2.324-4.65-3.391
		c1.874-1.673,4.081-3.014,5.989-4.65C217.457,21.694,217.148,23.133,217.25,24.16z"/>
	<path fill-rule="evenodd" clip-rule="evenodd" d="M188.082,23.609c0.068-0.014,0.075,0.032,0.077,0.081
		c2.085,5.09,9.274,6.311,16.162,6.699c-0.46,1.608-0.896,3.598-0.631,5.678c-2.962-0.125-6.313-0.616-9.144-1.578
		c-2.606-0.884-6.048-2.525-6.465-5.28C187.828,27.521,188.27,25.649,188.082,23.609z"/>
	<path fill-rule="evenodd" clip-rule="evenodd" d="M188.082,31.335c2.035,5.098,9.142,6.406,15.925,6.779
		c0.433,2.327,1.812,4.127,2.761,5.677c-5.919,0.165-11.855-0.665-15.689-3.153c-1.15-0.746-2.575-1.964-2.919-3.311
		C187.71,35.545,188.331,33.542,188.082,31.335z"/>
</g>
<g>
	<path fill-rule="evenodd" clip-rule="evenodd" fill="#FFFFFF" d="M175.06,5.116c0,13.591,0,27.182,0,40.772
		c-13.593,0-27.183,0-40.774,0c0-6.561,0-13.313,0-20.068c0-6.734-0.639-13.685,0-20.067c0.022-0.201-0.245-0.697,0.319-0.637
		C148.09,5.116,161.575,5.116,175.06,5.116z M134.605,12.92c-0.031,3.415,3.658,4.894,6.371,5.892
		c6.448,2.374,14.855,2.296,21.183,0c2.564-0.931,6.418-2.762,6.371-5.892c-0.052-3.419-4.914-5.473-7.327-6.211
		c-3.783-1.159-8.632-1.412-12.423-1.115C143.769,5.985,134.657,7.699,134.605,12.92z M144.479,27.732
		c4.746,0.989,10.043,0.632,14.175,0c1.604-3.917,4.497-6.546,9.876-6.689c-0.106-1.699,0.211-3.82-0.159-5.256
		c-0.183,0.787-0.677,1.771-1.274,2.389c-6.567,6.791-28.483,5.916-32.332-2.229c-0.009-0.096-0.023-0.188-0.159-0.159
		C133.096,24.307,138.481,26.483,144.479,27.732z M144.164,35.377c3.02,0.659,7.519,1.446,9.873,0.797
		c0.918-0.253,3.871-3.064,4.141-4.301c0.181-0.839-0.146-1.516,0-2.07c-9.153,1.426-20.302,0.408-23.572-6.052
		C133.138,32.041,138.356,34.11,144.164,35.377z M161.203,31.076c0.043,3.423,2.761,6.639,6.69,6.69
		c3.706,0.047,7.436-3.18,6.848-7.804c-0.449-3.535-3.796-6.082-7.645-5.574C163.369,24.878,161.155,27.312,161.203,31.076z
		 M150.213,43.978c-0.059-1.339-0.17-2.665,0.319-3.822c0.366-0.869,1.604-1.379,1.273-1.911
		c-7.741-0.224-14.493-1.435-17.201-6.689C133.014,42.489,141.778,43.067,150.213,43.978z M156.584,38.084
		c-2.16,2.158-4.434,3.477-2.866,7.167c2.093,1.257,4.438-0.267,6.688-0.319c0.648-0.307,0.035-1.877,0.479-2.389
		c0.801-0.049,1.881,0.183,2.229-0.318c0.321-0.476,0.089-1.502,0.158-2.229c1.076-0.042,2.512,0.28,2.551-0.796
		c-1.282-0.63-2.554-1.27-3.664-2.072c-2.181,2.014-3.821,4.566-6.53,6.053c-0.017-0.299-0.526-0.109-0.479-0.477
		c1.283-3.072,4.379-4.329,6.053-7.007c-0.491-0.253-0.502-0.985-0.955-1.276C159.348,35.56,158.013,36.656,156.584,38.084z"/>
	<path fill-rule="evenodd" clip-rule="evenodd" d="M148.78,5.594c3.791-0.297,8.64-0.044,12.423,1.115
		c2.413,0.739,7.275,2.792,7.327,6.211c0.047,3.13-3.807,4.961-6.371,5.892c-6.327,2.296-14.734,2.374-21.183,0
		c-2.713-0.998-6.402-2.478-6.371-5.892C134.657,7.699,143.769,5.985,148.78,5.594z"/>
	<path fill-rule="evenodd" clip-rule="evenodd" d="M134.605,15.787c0.136-0.029,0.15,0.063,0.159,0.159
		c3.849,8.145,25.765,9.021,32.332,2.229c0.598-0.618,1.092-1.602,1.274-2.389c0.37,1.436,0.053,3.557,0.159,5.256
		c-5.379,0.144-8.271,2.772-9.876,6.689c-4.132,0.632-9.429,0.989-14.175,0C138.481,26.483,133.096,24.307,134.605,15.787z"/>
	<path fill-rule="evenodd" clip-rule="evenodd" d="M134.605,23.751c3.271,6.46,14.419,7.478,23.572,6.052
		c-0.146,0.555,0.181,1.231,0,2.07c-0.27,1.236-3.223,4.047-4.141,4.301c-2.354,0.649-6.854-0.138-9.873-0.797
		C138.356,34.11,133.138,32.041,134.605,23.751z"/>
	<path fill-rule="evenodd" clip-rule="evenodd" d="M167.096,24.388c3.849-0.508,7.195,2.039,7.645,5.574
		c0.588,4.624-3.142,7.851-6.848,7.804c-3.93-0.051-6.647-3.267-6.69-6.69C161.155,27.312,163.369,24.878,167.096,24.388z
		 M170.442,30.917c2.941-0.104,2.938-5.351-0.957-4.3C167.081,27.615,168.19,30.996,170.442,30.917z"/>
	<path fill-rule="evenodd" clip-rule="evenodd" fill="#FFFFFF" d="M169.485,26.617c3.895-1.05,3.898,4.197,0.957,4.3
		C168.19,30.996,167.081,27.615,169.485,26.617z"/>
	<path fill-rule="evenodd" clip-rule="evenodd" d="M134.605,31.555c2.708,5.255,9.46,6.465,17.201,6.689
		c0.33,0.532-0.907,1.042-1.273,1.911c-0.489,1.157-0.378,2.483-0.319,3.822C141.778,43.067,133.014,42.489,134.605,31.555z"/>
	<path fill-rule="evenodd" clip-rule="evenodd" d="M160.248,34.42c0.453,0.291,0.464,1.022,0.955,1.276
		c-1.674,2.678-4.77,3.935-6.053,7.007c-0.048,0.368,0.462,0.178,0.479,0.477c2.709-1.487,4.35-4.039,6.53-6.053
		c1.11,0.802,2.382,1.441,3.664,2.072c-0.039,1.076-1.475,0.755-2.551,0.796c-0.069,0.728,0.163,1.753-0.158,2.229
		c-0.348,0.501-1.428,0.269-2.229,0.318c-0.444,0.512,0.169,2.082-0.479,2.389c-2.25,0.052-4.595,1.576-6.688,0.319
		c-1.567-3.69,0.706-5.009,2.866-7.167C158.013,36.656,159.348,35.56,160.248,34.42z"/>
</g>
<g>
	<g>
		<g>
			<path d="M225.643,70.662c0.033-6.089-4.884-10.858-10.718-10.858h-37.022v34.384h7.947V65.858h11.67v28.329h7.945V65.858h6.566
				c3.721,0.035,5.648,2.436,5.648,5.605v22.724h7.979C225.66,94.188,225.635,71.879,225.643,70.662"/>
			<path d="M162.693,59.804c-0.144-0.002-16.235,0.002-20.961,0v6.054h17.479c3.993,0,5.659,2.952,5.659,7.279h-14.633
				c-5.833,0-10.606,4.624-10.606,10.372s4.699,10.678,10.536,10.678h22.667c0,0-0.005-22.42-0.005-23.642
				C172.819,64.393,168.493,59.884,162.693,59.804 M152.139,87.889V87.88c-2.42-0.136-4.344-1.998-4.344-4.281
				c0-2.234,1.845-4.064,4.195-4.271h12.894v8.561H152.139z"/>
			<path d="M90.861,65.858h12.599v-6.055H87.813c-6.45,0-13.131,4.699-13.131,17.173c0,11.217,6.681,17.21,12.886,17.21h15.893
				v-6.081h-13.9c-3.89,0-6.812-4.219-6.812-8.257h20.711v-6.039H82.788C82.788,68.81,85.67,65.858,90.861,65.858"/>
			<path d="M123.387,65.858h12.599v-6.055H120.34c-6.451,0-13.133,4.699-13.133,17.173c0,11.217,6.682,17.21,12.886,17.21h15.893
				v-6.081h-13.899c-3.89,0-6.812-4.219-6.812-8.257h20.712v-6.039h-20.672C115.314,68.81,118.197,65.858,123.387,65.858"/>
			<polygon points="38.492,59.804 53.053,94.188 60.369,94.188 76.159,59.804 67.387,59.804 56.723,84.271 47.224,59.804 			"/>
			<path fill="#54B948" d="M27.519,59.804l0.004,22.672c0-0.02,0.007,2.102,0.007,2.102l0.014,9.438
				c-0.029,4.672,1.753,9.056,5.021,12.344c3.284,3.305,7.654,5.125,12.309,5.125l180.781,0.006v-10.731l-179.409-0.006
				c-3.869,0-7.5-1.513-10.23-4.259c-2.709-2.729-4.189-6.373-4.165-10.261c0-0.002-0.016-1.719-0.016-1.719l-0.004-2.02
				l-0.004-22.692H27.519z"/>
			<rect x="85.779" y="118.122" width="2.874" height="12.74"/>
			<polygon points="93.624,120.541 90.183,120.541 90.183,118.122 99.977,118.122 99.977,120.541 96.498,120.541 96.498,130.862 
				93.624,130.862 			"/>
			<path d="M107.821,118.121h2.873v8.054c0,3.629-1.739,4.896-4.519,4.896c-0.68,0-1.55-0.113-2.117-0.302l0.321-2.325
				c0.397,0.133,0.908,0.227,1.476,0.227c1.208,0,1.966-0.549,1.966-2.514V118.121z"/>
			<path d="M115.967,118.121v7.316c0,2.211,0.851,3.326,2.307,3.326c1.512,0,2.344-1.059,2.344-3.326v-7.316h2.873v7.146
				c0,3.933-1.984,5.804-5.312,5.804c-3.214,0-5.084-1.795-5.084-5.841v-7.108H115.967z"/>
			<path d="M126.08,127.895c0.758,0.397,1.967,0.794,3.195,0.794c1.323,0,2.023-0.548,2.023-1.38c0-0.794-0.604-1.248-2.137-1.777
				c-2.117-0.756-3.517-1.929-3.517-3.781c0-2.173,1.835-3.818,4.821-3.818c1.456,0,2.496,0.284,3.252,0.643l-0.643,2.306
				c-0.492-0.246-1.419-0.605-2.647-0.605c-1.247,0-1.852,0.587-1.852,1.229c0,0.813,0.698,1.172,2.362,1.796
				c2.249,0.832,3.29,2.003,3.29,3.8c0,2.135-1.627,3.95-5.124,3.95c-1.455,0-2.893-0.397-3.61-0.794L126.08,127.895z"/>
			<polygon points="138.669,120.541 135.23,120.541 135.23,118.122 145.022,118.122 145.022,120.541 141.542,120.541 
				141.542,130.862 138.669,130.862 			"/>
			<path d="M151.732,130.862l-3.024-12.741h3.081l0.964,5.237c0.284,1.53,0.549,3.175,0.756,4.479h0.039
				c0.208-1.398,0.511-2.93,0.832-4.518l1.077-5.199h3.062l1.022,5.369c0.283,1.494,0.491,2.854,0.68,4.271h0.038
				c0.188-1.418,0.472-2.911,0.735-4.441l1.041-5.199h2.93l-3.289,12.741h-3.118l-1.077-5.481c-0.246-1.286-0.455-2.477-0.606-3.932
				h-0.037c-0.228,1.436-0.436,2.646-0.738,3.95l-1.209,5.463H151.732z"/>
			<path d="M171.713,131.07c-3.762,0-5.993-2.854-5.993-6.483c0-3.819,2.458-6.674,6.201-6.674c3.913,0,6.048,2.93,6.048,6.446
				c0,4.197-2.513,6.711-6.237,6.711H171.713z M171.865,128.783c1.946,0,3.062-1.834,3.062-4.329c0-2.287-1.078-4.253-3.062-4.253
				c-1.985,0-3.102,1.928-3.102,4.31c0,2.401,1.153,4.272,3.082,4.272H171.865z"/>
			<path d="M179.861,118.311c0.926-0.171,2.286-0.284,3.837-0.284c1.891,0,3.213,0.284,4.121,1.02
				c0.775,0.606,1.189,1.494,1.189,2.667c0,1.606-1.152,2.721-2.248,3.118v0.057c0.889,0.359,1.379,1.191,1.701,2.363
				c0.396,1.455,0.775,3.119,1.02,3.61h-2.948c-0.189-0.378-0.51-1.399-0.87-2.968c-0.358-1.607-0.906-2.023-2.098-2.041h-0.851
				v5.009h-2.854V118.311z M182.714,123.774h1.134c1.438,0,2.287-0.718,2.287-1.834c0-1.153-0.792-1.757-2.117-1.757
				c-0.698,0-1.096,0.038-1.304,0.095V123.774z"/>
			<path d="M191.07,118.121h2.854v5.634h0.038c0.284-0.491,0.587-0.945,0.889-1.398l2.874-4.235h3.554l-4.217,5.426l4.425,7.315
				h-3.346l-3.139-5.501l-1.078,1.342v4.159h-2.854V118.121z"/>
			<path d="M202.771,127.895c0.756,0.397,1.966,0.794,3.195,0.794c1.322,0,2.022-0.548,2.022-1.38c0-0.794-0.605-1.248-2.137-1.777
				c-2.117-0.756-3.517-1.929-3.517-3.781c0-2.173,1.834-3.818,4.821-3.818c1.456,0,2.494,0.284,3.251,0.643l-0.643,2.306
				c-0.491-0.246-1.417-0.605-2.646-0.605c-1.248,0-1.854,0.587-1.854,1.229c0,0.813,0.701,1.172,2.364,1.796
				c2.249,0.832,3.289,2.003,3.289,3.8c0,2.135-1.626,3.95-5.124,3.95c-1.456,0-2.892-0.397-3.609-0.794L202.771,127.895z"/>
			<path d="M214.15,131.07c-1.001,0-1.682-0.737-1.682-1.721c0-1.02,0.698-1.719,1.701-1.719s1.664,0.699,1.683,1.719
				c0,0.983-0.662,1.721-1.683,1.721H214.15z M213.092,126.686l-0.416-8.564h2.986l-0.415,8.564H213.092z"/>
			<polygon points="219.398,118.584 218.117,118.584 218.117,118.122 221.238,118.122 221.238,118.584 219.95,118.584 
				219.95,122.337 219.398,122.337 			"/>
			<path d="M225.022,120.486c-0.03-0.583-0.069-1.302-0.069-1.821h-0.012c-0.15,0.489-0.319,1.026-0.532,1.602l-0.745,2.046h-0.412
				l-0.688-2.009c-0.201-0.595-0.364-1.138-0.482-1.639h-0.012c-0.014,0.526-0.044,1.232-0.082,1.865l-0.112,1.807h-0.52
				l0.295-4.215h0.693l0.72,2.039c0.175,0.519,0.313,0.987,0.425,1.426h0.014c0.111-0.426,0.263-0.896,0.45-1.426l0.751-2.039h0.693
				l0.263,4.215h-0.538L225.022,120.486z"/>
		</g>
	</g>
</g>
</svg>
