<?xml version="1.0" encoding="utf-8"?>
<!-- Generator: Adobe Illustrator 15.1.0, SVG Export Plug-In . SVG Version: 6.00 Build 0)  -->
<!DOCTYPE svg PUBLIC "-//W3C//DTD SVG 1.1//EN" "http://www.w3.org/Graphics/SVG/1.1/DTD/svg11.dtd">
<svg version="1.1" id="Layer_1" xmlns="http://www.w3.org/2000/svg" xmlns:xlink="http://www.w3.org/1999/xlink" x="0px" y="0px"
	 width="240px" height="126px" viewBox="0 0 240 126" enable-background="new 0 0 240 126" xml:space="preserve">
<g id="motyl_cely" display="none">
	<g display="inline">
		<path fill="#009FE3" d="M8.76-101.586c11.465,5.159,22.93,11.465,33.82,17.483c12.611,6.879,23.216,18.63,37.833,21.495"/>
		<path fill="#010202" d="M8.76-101.586c6.382,2.452,12.613,5.303,18.716,8.381c6.122,3.082,12.105,6.27,18.104,9.676
			c5.916,3.599,11.229,7.922,16.771,11.826c5.534,3.878,11.407,7.404,18.062,9.096c-3.397-0.435-6.705-1.506-9.877-2.847
			c-3.159-1.386-6.166-3.097-9.055-4.953c-5.795-3.694-11.158-7.942-16.935-11.411c-2.863-1.715-5.929-3.336-8.878-5.013l-8.92-5
			C20.787-95.132,14.824-98.43,8.76-101.586z"/>
	</g>
	<g display="inline">
		<path fill="#009FE3" d="M9.755-101.299c7.453,6.592,16.624,13.184,22.356,21.496c1.721,2.579,1.433,4.871,2.58,7.164
			c3.439,6.02,14.618,8.312,21.209,9.745"/>
		<path fill="#010202" d="M9.755-101.299c4.188,3.145,8.412,6.211,12.431,9.604c4.02,3.39,7.834,7.086,10.896,11.554
			c0.794,1.24,1.231,2.651,1.521,3.95c0.292,1.286,0.551,2.5,1.114,3.416c1.214,1.99,3.354,3.472,5.562,4.669
			c4.52,2.364,9.616,3.702,14.621,5.213c-5.178-0.704-10.403-1.596-15.314-3.814c-2.427-1.119-4.826-2.632-6.479-5.068
			c-0.841-1.311-1.091-2.725-1.406-3.961c-0.291-1.242-0.674-2.354-1.299-3.32c-1.382-2.082-3.051-4.083-4.782-5.973
			c-1.726-1.913-3.594-3.707-5.469-5.505C17.376-94.104,13.402-97.528,9.755-101.299z"/>
	</g>
	<g display="inline">
		<path fill="#009FE3" d="M62.266-64.567c-7.739,0-23.789,6.021-16.052,16.051c1.434,2.008,23.503,20.923,13.186,22.931"/>
		<path fill="#010202" d="M62.266-64.567c-2.447,0.244-4.817,0.851-7.089,1.676c-2.268,0.82-4.455,1.879-6.347,3.262
			c-1.852,1.382-3.469,3.199-3.683,5.283c-0.26,2.038,0.885,4.227,2.387,5.811c1.677,1.717,3.478,3.436,5.178,5.212
			c1.691,1.796,3.379,3.606,4.918,5.557c1.543,1.941,3.019,3.973,4.075,6.286c0.475,1.155,0.953,2.442,0.653,3.794
			c-0.155,0.666-0.608,1.248-1.168,1.569c-0.563,0.323-1.182,0.463-1.791,0.532c1.171-0.297,2.339-1.061,2.414-2.204
			c0.102-1.11-0.413-2.235-0.987-3.253c-1.185-2.062-2.779-3.907-4.386-5.714c-3.27-3.604-6.812-6.899-10.343-10.391
			c-0.217-0.231-0.448-0.464-0.68-0.774c-0.194-0.266-0.39-0.528-0.569-0.808c-0.363-0.553-0.692-1.14-0.961-1.766
			c-0.538-1.241-0.827-2.687-0.612-4.101c0.213-1.413,0.873-2.702,1.722-3.735c0.846-1.049,1.872-1.879,2.948-2.577
			c2.157-1.399,4.534-2.291,6.945-2.917C57.309-64.412,59.803-64.765,62.266-64.567z"/>
	</g>
	<g display="inline">
		<path fill="#010202" d="M76.812-62.894c-1.372,3.163-3.617,5.901-5.948,8.397c-2.327,2.519-4.847,4.809-6.948,7.35
			c-2.127,2.497-3.769,5.362-3.968,8.562c-0.223,3.202,0.897,6.47,2.307,9.571c-2.105-2.663-3.792-5.935-3.866-9.606
			c-0.06-1.82,0.384-3.652,1.106-5.312c0.742-1.659,1.775-3.136,2.886-4.495c2.278-2.684,4.879-4.919,7.393-7.18
			C72.284-57.873,74.73-60.168,76.812-62.894z"/>
	</g>
	<g display="inline">
		<path fill="#010202" d="M91.524-141.094c-5.302,10.102-10.303,20.517-12.454,31.649c-2.009,11.128-1.396,22.636-1.737,34.033
			c-0.003,2.85-0.006,5.652,0.736,8.239c0.364,1.293,0.907,2.526,1.603,3.688c0.172,0.291,0.355,0.577,0.545,0.859l0.035,0.053
			l0.019,0.026c0.017,0.024-0.089-0.114-0.034-0.044l0.086,0.104l0.171,0.207l0.341,0.413c0.441,0.499,0.9,0.994,1.396,1.475
			c3.962,3.842,9.296,6.051,14.727,7.43c2.732,0.692,5.528,1.161,8.343,1.527c1.401,0.174,2.836,0.358,4.224,0.44
			c1.41,0.089,2.836,0.116,4.266,0.164c2.857,0.105,5.742,0.218,8.588,0.699c2.812,0.479,5.729,1.346,7.84,3.334
			c-1.111-0.904-2.41-1.533-3.761-1.951c-1.348-0.438-2.748-0.691-4.154-0.857c-2.819-0.326-5.668-0.289-8.521-0.244
			c-1.429,0.018-2.861,0.036-4.307,0.003c-1.469-0.033-2.878-0.162-4.318-0.285c-2.866-0.262-5.729-0.684-8.559-1.312
			c-5.63-1.24-11.282-3.49-15.671-7.576c-0.541-0.504-1.064-1.048-1.567-1.62l-0.344-0.412l-0.172-0.205l-0.086-0.103l-0.093-0.127
			l-0.04-0.058c-0.21-0.31-0.414-0.625-0.608-0.947c-0.779-1.286-1.406-2.687-1.824-4.144c-0.852-2.934-0.844-5.93-0.856-8.776
			c0.193-5.753,0.156-11.42,0.355-17.175c0.11-2.865,0.275-5.747,0.566-8.61c0.237-2.849,0.666-5.749,1.291-8.563
			c1.237-5.655,3.25-11.095,5.68-16.294C85.703-131.236,88.506-136.235,91.524-141.094z"/>
	</g>
	<g display="inline">
		<path fill="#36A9E1" d="M91.279-141.094c0,14.495,1.576,33.403,9.77,46.009c2.521,3.15,8.823,9.139,8.509,13.549
			c-0.316,3.152-3.466,4.729-5.673,6.618"/>
		<path fill="#010202" d="M91.279-141.094l0.428,5.943c0.165,1.977,0.361,3.948,0.562,5.916c0.422,3.934,0.973,7.843,1.7,11.71
			c0.757,3.858,1.673,7.683,2.948,11.377c1.242,3.703,2.852,7.271,4.898,10.563l-0.053-0.072c1.26,1.602,2.724,3.17,4.024,4.86
			c1.305,1.688,2.6,3.435,3.488,5.463c0.428,1.016,0.787,2.104,0.792,3.273c0.009,1.172-0.488,2.317-1.165,3.179
			c-1.4,1.759-3.328,2.712-5.019,3.963c1.497-1.479,3.356-2.659,4.442-4.368c0.531-0.852,0.819-1.79,0.729-2.736
			c-0.068-0.949-0.444-1.889-0.898-2.778c-0.952-1.776-2.242-3.41-3.604-4.978c-1.371-1.574-2.81-3.072-4.22-4.734l-0.018-0.021
			l-0.036-0.053c-2.274-3.378-3.938-7.112-5.249-10.921c-1.275-3.827-2.2-7.752-2.815-11.711c-0.636-3.957-0.979-7.947-1.124-11.933
			c-0.082-1.993-0.086-3.987-0.05-5.979C91.073-137.119,91.135-139.109,91.279-141.094z"/>
	</g>
	<g display="inline">
		<path fill="#009FE3" d="M80.402-66.813c7.452-10.031,27.516-9.458,34.396,0.573c2.865,4.299,3.151,8.312,6.879,12.325
			c2.578,2.578,5.445,5.158,8.312,7.165"/>
		<path fill="#010202" d="M80.402-66.813c1.423-2.284,3.579-4.104,5.983-5.399c2.419-1.289,5.092-2.093,7.815-2.456
			c5.437-0.724,11.18,0.136,16.061,2.959c2.4,1.435,4.567,3.454,5.948,5.941c1.391,2.435,2.21,5.032,3.302,7.365
			c0.553,1.17,1.214,2.268,1.99,3.293c0.39,0.53,0.799,0.979,1.267,1.468l1.38,1.437c1.848,1.913,3.782,3.74,5.84,5.456
			c-2.316-1.354-4.455-3.007-6.511-4.739c-0.512-0.437-1.014-0.882-1.514-1.335c-0.495-0.438-1.028-0.937-1.474-1.452
			c-0.927-1.034-1.7-2.207-2.366-3.414c-1.338-2.425-2.178-4.956-3.545-7.115c-1.27-2.173-3.149-3.905-5.338-5.186
			c-2.173-1.309-4.629-2.164-7.15-2.673c-2.525-0.526-5.136-0.646-7.723-0.459c-2.582,0.214-5.158,0.766-7.56,1.791
			C84.399-70.331,82.176-68.826,80.402-66.813z"/>
	</g>
	<ellipse display="inline" fill="#C1DDF5" cx="88.181" cy="-94.073" rx="7.922" ry="19.948"/>
	<g display="inline">
		<path fill="#F9B233" d="M65.308-62.205c-3.921-2.615-10.021,2.832-5.445,6.754c6.316,5.229,12.854-6.535,4.138-8.062"/>
		<path fill="#010202" d="M65.308-62.205c-2.453-1.13-5.141,0.397-5.979,2.354c-0.405,0.992-0.285,2.001,0.357,2.82
			c0.158,0.203,0.332,0.404,0.529,0.594c0.085,0.085,0.229,0.208,0.283,0.252c0.126,0.096,0.27,0.211,0.365,0.27
			c0.437,0.302,0.942,0.55,1.436,0.671c1.967,0.629,4.212-0.903,4.966-3.016c0.376-1.042,0.377-2.225-0.251-3.186
			c-0.609-0.983-1.78-1.63-3.015-2.067c1.305,0.011,2.727,0.38,3.78,1.453c0.509,0.539,0.869,1.241,1.032,1.984
			c0.166,0.746,0.118,1.519-0.047,2.247c-0.332,1.467-1.23,2.761-2.467,3.674c-1.239,0.908-2.984,1.267-4.52,0.84
			c-0.768-0.216-1.441-0.569-2.065-1.023c-0.175-0.123-0.282-0.217-0.413-0.32c-0.196-0.166-0.295-0.261-0.439-0.406
			c-0.267-0.269-0.52-0.563-0.731-0.897c-0.43-0.657-0.724-1.456-0.76-2.281c-0.048-0.825,0.184-1.636,0.569-2.306
			c0.771-1.354,2.08-2.221,3.467-2.562C62.795-63.449,64.347-63.139,65.308-62.205z"/>
	</g>
	<g display="inline">
		<path fill="#F9B233" d="M106.27-64.756c-0.907-5.669-11.111-2.041-9.071,4.762c2.268,8.164,14.74,1.36,9.979-6.349"/>
		<path fill="#010202" d="M106.27-64.756c-0.22-0.724-0.622-1.373-1.18-1.768c-0.558-0.396-1.229-0.562-1.899-0.532
			c-1.346,0.035-2.654,0.678-3.63,1.56c-0.968,0.903-1.615,2.081-1.666,3.324c-0.032,0.617,0.036,1.247,0.229,1.863
			c0.113,0.373,0.205,0.633,0.341,0.921c0.137,0.282,0.293,0.545,0.474,0.78c0.684,0.974,1.819,1.438,3.07,1.349
			c1.256-0.053,2.525-0.648,3.568-1.482c1.027-0.857,1.845-2.022,2.135-3.374c0.333-1.351,0.066-2.841-0.535-4.228
			c0.977,1.149,1.603,2.713,1.509,4.356c-0.09,1.64-0.877,3.225-2.05,4.393c-1.162,1.186-2.72,2.008-4.465,2.223
			c-0.871,0.098-1.801-0.009-2.663-0.357c-0.863-0.346-1.627-0.954-2.169-1.681c-0.269-0.366-0.488-0.757-0.669-1.154
			c-0.179-0.394-0.324-0.849-0.419-1.195c-0.23-0.821-0.344-1.708-0.237-2.586c0.199-1.768,1.199-3.376,2.562-4.354
			c1.341-1.001,3.017-1.542,4.683-1.332c0.821,0.119,1.647,0.477,2.203,1.1C106.029-66.313,106.256-65.506,106.27-64.756z"/>
	</g>
	<g display="inline">
		<path fill="#F9B233" d="M93.472-97.653c-5.41-3.246-12.625,3.247-9.016,9.019c5.049,9.02,15.509-2.164,8.656-9.739"/>
		<path fill="#010202" d="M93.472-97.653c-1.55-0.686-3.253-0.718-4.712-0.153c-1.466,0.532-2.705,1.581-3.494,2.843
			c-0.775,1.272-1.093,2.766-0.72,4.13c0.092,0.339,0.205,0.674,0.356,0.997c0.143,0.319,0.343,0.623,0.568,1.001
			c0.386,0.628,0.862,1.218,1.397,1.656c1.048,0.926,2.409,1.179,3.706,0.673c1.313-0.468,2.43-1.597,3.194-2.896
			c0.752-1.319,1.146-2.879,1.03-4.45c-0.09-1.58-0.728-3.135-1.687-4.521c1.289,1.089,2.267,2.631,2.658,4.378
			c0.377,1.746,0.165,3.642-0.611,5.303c-0.755,1.664-2.068,3.145-3.881,3.944c-0.905,0.39-1.959,0.539-2.979,0.372
			c-1.022-0.162-1.965-0.646-2.716-1.271c-0.748-0.643-1.318-1.391-1.794-2.195c-0.196-0.345-0.45-0.748-0.644-1.197
			c-0.195-0.439-0.351-0.902-0.442-1.381c-0.398-1.92,0.14-3.961,1.282-5.425c1.114-1.494,2.75-2.524,4.511-2.9
			C90.258-99.125,92.155-98.727,93.472-97.653z"/>
	</g>
	
		<ellipse transform="matrix(0.6157 -0.788 0.788 0.6157 76.5757 6.0708)" display="inline" fill="#C1DDF5" cx="44.512" cy="-75.471" rx="4.713" ry="11.87"/>
	<g display="inline">
		<path fill="#F9B233" d="M46.995-78.817c-3.625-2.176-8.457,2.176-6.04,6.043c3.383,6.042,10.392-1.451,5.8-6.526"/>
		<path fill="#010202" d="M46.995-78.817c-2.181-0.837-4.353,0.326-5.286,1.948c-0.458,0.82-0.635,1.731-0.389,2.553
			c0.061,0.205,0.13,0.408,0.224,0.605c0.088,0.192,0.212,0.379,0.368,0.638c0.244,0.392,0.548,0.762,0.871,1.021
			c0.634,0.555,1.371,0.696,2.155,0.413c0.798-0.259,1.513-0.957,2.027-1.768c0.499-0.827,0.793-1.816,0.759-2.841
			c-0.011-1.03-0.382-2.074-0.97-3.053c0.918,0.68,1.629,1.711,1.941,2.909c0.296,1.198,0.185,2.524-0.341,3.694
			c-0.503,1.175-1.416,2.225-2.713,2.815c-0.648,0.286-1.419,0.396-2.166,0.277c-0.749-0.116-1.438-0.469-1.978-0.916
			c-0.537-0.465-0.935-0.991-1.268-1.561c-0.127-0.225-0.307-0.513-0.444-0.835c-0.138-0.313-0.249-0.645-0.31-0.988
			c-0.271-1.378,0.125-2.835,0.951-3.848c0.8-1.039,1.961-1.727,3.189-1.954C44.848-79.929,46.15-79.601,46.995-78.817z"/>
	</g>
</g>
<text transform="matrix(1 0 0 1 66.9946 -12.043)" display="none" font-family="'TheQuick'" font-size="37.2672" letter-spacing="2">RRsoft</text>
<rect fill="#009FE3" stroke="#DADADA" stroke-miterlimit="10" width="240" height="126"/>
<g>
	<path fill-rule="evenodd" clip-rule="evenodd" fill="#FFFFFF" d="M94.091,59.346c0,0-22.203-19.855-58.942,4.717
		c0,0,9.303-11.104,29.006-15.961C64.155,48.102,78.795,19.669,94.091,59.346z"/>
	<path fill-rule="evenodd" clip-rule="evenodd" fill="#FFFFFF" d="M112.084,61.697c-7.838,14.333-21.956,6.73-25.344,3.959
		C74.395,55.552,66.412,54.471,66.412,54.471s8.864-4.237,28.847,7.377C105.259,67.659,113.08,59.875,112.084,61.697z"/>
	<path fill-rule="evenodd" clip-rule="evenodd" fill="#FFFFFF" d="M95.188,59.656c10.747,5.697,21.302-7.619,21.302-7.619
		c-15.151,5.165-22.528-3.044-22.528-3.044C96.252,57.27,94.768,59.434,95.188,59.656z"/>
	<path fill-rule="evenodd" clip-rule="evenodd" fill="#FFFFFF" d="M91.917,45.546 M97.23,28.196"/>
	<path fill-rule="evenodd" clip-rule="evenodd" fill="#FFFFFF" d="M116.302,22.766c4.761-10.562-4.323-20.055-4.245-19.898
		c5.086,10.195-11.132,22.446-14.827,25.329c-13.654,10.651-5.313,17.35-5.313,17.35s-0.213-5.058,13.445-11.521
		c13.657-6.462,12.916-12.566,12.916-12.566S114.659,26.414,116.302,22.766z"/>
	<path fill-rule="evenodd" clip-rule="evenodd" fill="#FFFFFF" d="M129.239,36.605c18.155-8.874,9.323-28.773,9.257-26.339
		c-0.067,2.435,3.067,15.901-22.311,21.949c-25.377,6.047-22.723,14.381-22.723,14.381c20.606,17.448,39.382-10.501,39.382-10.501
		S125.96,38.209,129.239,36.605z"/>
	<path fill-rule="evenodd" clip-rule="evenodd" fill="#FFFFFF" d="M124.282,100.859c0,0,10.646-29.805-12.761-42.1
		c0,0,23.339-7.158,20.793,22.879c0.342-4.035-3.07-8.945-3.07-8.945s2.61,12.73-4.901,28.271"/>
</g>
<g>
	<path fill-rule="evenodd" clip-rule="evenodd" fill="#FFFFFF" d="M118.885,101.625c-0.43,0.235-0.861,0.509-1.289,0.703
		c-1.291,0.587-2.619,0.743-3.79,0.743c-1.25,0-3.205-0.079-5.196-1.523c-2.773-1.953-3.984-5.313-3.984-8.242
		c0-6.055,4.921-9.024,8.946-9.024c1.405,0,2.853,0.352,4.024,1.095c1.952,1.289,2.459,2.968,2.732,3.868l-9.179,3.709l-3.008,0.236
		c0.978,4.961,4.336,7.85,8.047,7.85c1.993,0,3.438-0.701,4.767-1.366L118.885,101.625L118.885,101.625z M115.213,89.984
		c0.74-0.273,1.132-0.506,1.132-1.055c0-1.562-1.756-3.358-3.868-3.358c-1.563,0-4.491,1.212-4.491,5.43
		c0,0.665,0.078,1.367,0.116,2.069L115.213,89.984L115.213,89.984z"/>
	<path fill-rule="evenodd" clip-rule="evenodd" fill="#FFFFFF" d="M103.688,102.486h-6.914c0.898-1.173,1.055-1.29,1.055-2.071
		v-6.367c0-3.047,0.039-7.383,0.155-11.445c0.041-1.992,0.196-4.493,0.235-6.29h-3.046l2.93-1.406h5.586
		c-1.211,0.703-1.601,0.938-1.756,2.306c-0.313,3.007-0.353,7.772-0.353,13.319v9.024c0,1.523,0.272,1.758,1.562,1.875
		c0.665,0.079,1.329,0.117,1.993,0.194L103.688,102.486L103.688,102.486z"/>
	<path fill-rule="evenodd" clip-rule="evenodd" fill="#FFFFFF" d="M90.876,86.195c0.898,0.743,2.773,2.306,2.773,5.273
		c0,2.892-1.642,4.259-3.28,5.548c-0.509,0.508-1.095,1.056-1.095,1.914c0,0.859,0.586,1.328,1.015,1.68l1.407,1.094
		c1.721,1.444,3.281,2.773,3.281,5.471c0,3.671-3.555,7.382-10.273,7.382c-5.665,0-8.4-2.695-8.4-5.586
		c0-1.407,0.705-3.4,3.009-4.767c2.422-1.484,5.703-1.679,7.46-1.797c-0.547-0.703-1.17-1.446-1.17-2.655
		c0-0.666,0.195-1.055,0.391-1.524c-0.431,0.038-0.86,0.078-1.25,0.078c-4.141,0-6.485-3.086-6.485-6.134
		c0-1.796,0.82-3.789,2.5-5.233c2.227-1.837,4.882-2.148,6.993-2.148h8.045l-2.498,1.405H90.876L90.876,86.195z M88.102,103.541
		c-0.312-0.04-0.509-0.04-0.898-0.04c-0.353,0-2.461,0.078-4.103,0.626c-0.859,0.312-3.359,1.249-3.359,4.023
		c0,2.772,2.696,4.765,6.876,4.765c3.751,0,5.742-1.796,5.742-4.217C92.359,106.704,91.072,105.65,88.102,103.541L88.102,103.541z
		 M89.235,96.118c0.897-0.898,0.977-2.148,0.977-2.851c0-2.813-1.68-7.188-4.923-7.188c-1.015,0-2.108,0.506-2.733,1.288
		c-0.665,0.82-0.86,1.876-0.86,2.891c0,2.617,1.522,6.954,4.882,6.954C87.554,97.213,88.609,96.742,89.235,96.118L89.235,96.118z"/>
	<path fill-rule="evenodd" clip-rule="evenodd" fill="#FFFFFF" d="M66.656,102.992c-6.212,0-9.532-4.842-9.532-9.218
		c0-5.116,4.18-9.493,10.117-9.493c5.744,0,9.337,4.493,9.337,9.22C76.578,98.11,73.022,102.992,66.656,102.992L66.656,102.992z
		 M71.538,99.829c0.938-1.25,1.172-2.812,1.172-4.336c0-3.438-1.641-10-6.485-10c-1.289,0-2.578,0.509-3.516,1.328
		c-1.522,1.367-1.796,3.086-1.796,4.766c0,3.867,1.914,10.235,6.64,10.235C69.077,101.822,70.64,101.079,71.538,99.829
		L71.538,99.829z"/>
	<path fill-rule="evenodd" clip-rule="evenodd" fill="#FFFFFF" d="M45.874,102.992c-6.211,0-9.532-4.842-9.532-9.218
		c0-5.116,4.18-9.493,10.118-9.493c5.742,0,9.335,4.493,9.335,9.22C55.795,98.11,52.241,102.992,45.874,102.992L45.874,102.992z
		 M50.755,99.829c0.938-1.25,1.172-2.812,1.172-4.336c0-3.438-1.64-10-6.483-10c-1.289,0-2.579,0.509-3.516,1.328
		c-1.523,1.367-1.797,3.086-1.797,4.766c0,3.867,1.915,10.235,6.642,10.235C48.295,101.822,49.858,101.079,50.755,99.829
		L50.755,99.829z"/>
	<path fill-rule="evenodd" clip-rule="evenodd" fill="#FFFFFF" d="M33.857,101.63l-5.236,1.208
		c-2.125,0.329-4.029,0.624-6.042,0.624c-10.108,0-13.954-7.436-13.954-13.259c0-7.104,5.457-13.697,14.795-13.697
		c1.978,0,3.882,0.293,5.604,0.77c2.746,0.771,4.029,1.721,4.833,2.271l-3.039,2.894l-1.282,0.293l0.916-1.467
		c-1.246-1.208-3.517-3.44-7.836-3.44c-5.788,0-10.146,4.394-10.146,10.804c0,6.884,4.981,13.366,12.964,13.366
		c2.345,0,3.553-0.477,4.652-0.916v-5.896l-5.53,0.292l2.93-1.573h7.764l-0.952,0.915c-0.257,0.221-0.293,0.292-0.367,0.587
		c-0.037,0.328-0.074,1.392-0.074,1.758V101.63L33.857,101.63z"/>
</g>
<g>
	<path fill="#FFFFFF" d="M161.643,79.561c-0.599-2.193-1.146-3.489-2.044-4.686c-1.745-2.243-4.237-3.889-7.229-3.889
		c-3.091,0-5.035,1.994-5.035,4.736c0,3.39,3.689,5.483,8.924,8.524c5.284,3.091,7.727,5.981,7.727,9.771
		c0,5.583-4.387,9.322-10.17,9.322c-2.094,0-4.037-0.35-5.882-1.146c-0.947-0.399-1.795-0.549-2.343-0.549
		c-0.748,0-1.396,0.599-1.396,1.646h-1.097l-1.445-10.568h1.097c2.293,6.031,5.533,8.823,10.27,8.823
		c3.489,0,5.932-2.293,5.932-5.583c0-1.745-0.498-2.892-1.445-3.938c-1.745-1.895-5.185-4.088-8.375-5.782
		c-4.486-2.394-6.082-5.484-6.082-8.574c0-5.435,3.739-8.725,8.674-8.725c2.044,0,3.341,0.3,5.234,1.097
		c0.897,0.399,1.695,0.599,2.193,0.599c0.848,0,1.396-0.599,1.596-1.695h1.047l1.097,10.618H161.643z"/>
	<path fill="#FFFFFF" d="M194.693,102.642h-26.869v-0.947c3.838-0.249,4.337-0.897,4.337-4.735V75.224
		c0-3.688-0.599-4.437-4.337-4.636v-0.947h26.42l0.2,7.129h-1.247c-0.747-4.487-1.894-5.234-7.677-5.234h-6.53
		c-1.396,0-1.745,0.199-1.745,1.794v10.968h7.528c4.287,0,5.034-0.848,5.633-4.786h1.146v11.665h-1.146
		c-0.599-4.188-1.346-4.835-5.633-4.835h-7.528v12.113c0,2.094,1.347,2.343,5.035,2.343h1.795c7.129,0,9.272-1.296,11.516-6.58
		h1.396L194.693,102.642z"/>
	<path fill="#FFFFFF" d="M215.678,103.34c-9.671,0-16.301-6.979-16.301-17.349c0-10.119,6.58-17.049,16.301-17.049
		c9.771,0,16.301,7.328,16.301,17.198C231.979,96.41,225.25,103.34,215.678,103.34z M221.76,73.08
		c-1.795-1.495-3.789-2.343-6.132-2.343c-2.692,0-5.185,1.097-7.129,3.34c-2.144,2.442-3.439,7.278-3.439,12.014
		c0,5.933,1.445,10.419,4.486,13.211c1.695,1.545,3.889,2.243,6.182,2.243c2.492,0,4.686-0.748,6.431-2.393
		c2.742-2.643,4.138-7.328,4.138-13.311C226.296,80.159,224.601,75.473,221.76,73.08z"/>
</g>
<g>
	<path fill="#FFFFFF" d="M136.983,58.353c-3.78,0-6.372-2.728-6.372-6.78c0-3.956,2.572-6.664,6.372-6.664
		c3.819,0,6.372,2.864,6.372,6.723C143.355,55.645,140.724,58.353,136.983,58.353z M139.36,46.525
		c-0.701-0.585-1.48-0.916-2.396-0.916c-1.052,0-2.026,0.429-2.786,1.306c-0.838,0.955-1.345,2.845-1.345,4.696
		c0,2.318,0.565,4.072,1.754,5.163c0.662,0.604,1.52,0.877,2.416,0.877c0.975,0,1.832-0.292,2.514-0.936
		c1.071-1.032,1.617-2.864,1.617-5.202C141.133,49.292,140.471,47.461,139.36,46.525z"/>
	<path fill="#FFFFFF" d="M147.12,50.656c0.856-1.072,1.714-1.539,2.806-1.539c1.89,0,3.254,1.733,3.254,4.15
		c0,2.825-1.773,5.008-4.092,5.008c-0.818,0-1.267-0.195-1.968-0.838v3.059c0,1.228,0.253,1.442,1.714,1.462v0.351h-4.715v-0.331
		c1.149-0.117,1.363-0.332,1.363-1.345v-9.119c0-0.916-0.136-1.111-0.799-1.111c-0.175,0-0.312,0-0.486,0.02V50.11
		c1.071-0.331,1.772-0.584,2.806-0.993l0.117,0.038V50.656z M147.12,56.365c0,0.585,1.11,1.286,2.026,1.286
		c1.402,0,2.357-1.461,2.357-3.604c0-2.28-0.955-3.761-2.396-3.761c-0.896,0-1.987,0.701-1.987,1.286V56.365z"/>
	<path fill="#FFFFFF" d="M159.183,56.794c-0.644,1.014-1.384,1.481-2.357,1.481c-1.131,0-1.715-0.838-1.715-2.476v-5.864h-1.033
		c-0.059-0.039-0.078-0.078-0.078-0.137c0-0.117,0.117-0.234,0.332-0.37c0.506-0.292,1.149-1.014,1.89-2.085
		c0.117-0.176,0.272-0.351,0.39-0.546c0.098,0,0.137,0.059,0.137,0.254v2.26h1.968v0.624h-1.968v5.572
		c0,1.247,0.292,1.754,1.013,1.754c0.429,0,0.741-0.176,1.17-0.682L159.183,56.794z"/>
	<path fill="#FFFFFF" d="M159.476,58.08v-0.292c1.345-0.078,1.54-0.254,1.54-1.734v-4.423c0-0.916-0.156-1.229-0.644-1.229
		c-0.175,0-0.468,0-0.818,0.098v-0.312l3.021-1.071l0.078,0.077v6.84c0,1.441,0.155,1.656,1.441,1.754v0.292H159.476z
		 M161.659,46.759c-0.546,0-0.975-0.429-0.975-0.993c0-0.546,0.448-0.994,0.994-0.994c0.565,0,0.994,0.448,0.994,0.994
		C162.672,46.33,162.244,46.759,161.659,46.759z"/>
	<path fill="#FFFFFF" d="M175.436,58.08v-0.292c1.091-0.117,1.267-0.331,1.267-1.462v-4.014c0-1.539-0.39-2.183-1.501-2.183
		c-0.915,0-1.5,0.351-2.085,1.188v4.91c0,1.267,0.293,1.54,1.403,1.56v0.292h-4.364v-0.292c1.11-0.078,1.324-0.195,1.324-1.384
		v-4.111c0-1.345-0.429-2.163-1.267-2.163c-0.721,0-1.676,0.37-2.065,0.838c-0.136,0.156-0.253,0.292-0.253,0.331v5.417
		c0,0.838,0.292,1.033,1.325,1.072v0.292h-4.326v-0.292c1.092-0.02,1.364-0.293,1.364-1.423v-4.832c0-0.955-0.176-1.286-0.682-1.286
		c-0.215,0-0.37,0.02-0.624,0.078v-0.332c1.072-0.292,1.715-0.506,2.709-0.876l0.155,0.058v1.442h0.039
		c1.286-1.325,2.104-1.5,2.981-1.5c1.052,0,1.715,0.525,2.065,1.637c1.052-1.131,2.046-1.637,3.176-1.637
		c1.579,0,2.261,1.208,2.261,3.507v3.956c0,0.877,0.253,1.13,0.838,1.169l0.507,0.039v0.292H175.436z"/>
	<path fill="#FFFFFF" d="M188.359,57.34c-0.584,0.74-1.091,0.936-1.754,0.936c-0.721,0-1.149-0.391-1.246-1.423h-0.02
		c-1.033,1.169-1.988,1.423-2.826,1.423c-1.208,0-2.046-0.741-2.046-2.027c0-1.013,0.604-1.772,1.364-2.279
		c0.585-0.39,1.306-0.76,3.508-1.578v-1.053c0-1.208-0.644-1.754-1.521-1.754c-0.779,0-1.364,0.429-1.364,0.955
		c0,0.351,0.117,0.409,0.117,0.818c0,0.37-0.39,0.799-0.896,0.799c-0.409,0-0.838-0.37-0.838-0.896c0-0.506,0.312-1.13,0.994-1.559
		c0.546-0.351,1.364-0.584,2.241-0.584c1.091,0,1.831,0.312,2.299,0.876c0.468,0.565,0.546,0.975,0.546,2.163v3.722
		c0,0.896,0.253,1.286,0.604,1.286c0.312,0,0.507-0.098,0.838-0.37V57.34z M185.339,52.858c-1.209,0.429-2.008,0.838-2.494,1.285
		c-0.468,0.429-0.663,0.896-0.663,1.501c0,1.032,0.585,1.5,1.345,1.5c0.39,0,0.799-0.098,1.13-0.312
		c0.565-0.39,0.683-0.662,0.683-1.228V52.858z"/>
	<path fill="#FFFFFF" d="M188.809,58.08v-0.292c1.228-0.098,1.5-0.429,1.5-1.501v-9.139c0-0.935-0.194-1.247-0.818-1.247
		c-0.155,0-0.409,0-0.721,0.039v-0.312c1.345-0.331,2.065-0.526,3.079-0.857l0.097,0.078v11.535c0,1.072,0.215,1.325,1.462,1.403
		v0.292H188.809z"/>
	<path fill="#FFFFFF" d="M194.129,58.08v-0.292c1.345-0.078,1.54-0.254,1.54-1.734v-4.423c0-0.916-0.156-1.229-0.644-1.229
		c-0.175,0-0.468,0-0.818,0.098v-0.312l3.021-1.071l0.078,0.077v6.84c0,1.441,0.155,1.656,1.441,1.754v0.292H194.129z
		 M196.312,46.759c-0.546,0-0.975-0.429-0.975-0.993c0-0.546,0.448-0.994,0.994-0.994c0.565,0,0.994,0.448,0.994,0.994
		C197.326,46.33,196.897,46.759,196.312,46.759z"/>
	<path fill="#FFFFFF" d="M207.088,58.08h-7.326v-0.292l5.183-7.892h-2.63c-1.228,0-1.521,0.292-1.695,1.715h-0.351l0.077-2.3h6.742
		v0.292l-5.241,7.892h2.591c1.131,0,1.793-0.194,2.066-0.525c0.272-0.332,0.331-0.644,0.525-1.617l0.351,0.077L207.088,58.08z"/>
	<path fill="#FFFFFF" d="M216.501,57.34c-0.584,0.74-1.091,0.936-1.754,0.936c-0.721,0-1.149-0.391-1.246-1.423h-0.02
		c-1.033,1.169-1.988,1.423-2.826,1.423c-1.208,0-2.046-0.741-2.046-2.027c0-1.013,0.604-1.772,1.364-2.279
		c0.585-0.39,1.306-0.76,3.508-1.578v-1.053c0-1.208-0.644-1.754-1.521-1.754c-0.779,0-1.364,0.429-1.364,0.955
		c0,0.351,0.117,0.409,0.117,0.818c0,0.37-0.39,0.799-0.896,0.799c-0.409,0-0.838-0.37-0.838-0.896c0-0.506,0.312-1.13,0.994-1.559
		c0.546-0.351,1.364-0.584,2.241-0.584c1.091,0,1.831,0.312,2.299,0.876c0.468,0.565,0.546,0.975,0.546,2.163v3.722
		c0,0.896,0.253,1.286,0.604,1.286c0.312,0,0.507-0.098,0.838-0.37V57.34z M213.482,52.858c-1.209,0.429-2.008,0.838-2.494,1.285
		c-0.468,0.429-0.663,0.896-0.663,1.501c0,1.032,0.585,1.5,1.345,1.5c0.39,0,0.799-0.098,1.13-0.312
		c0.565-0.39,0.683-0.662,0.683-1.228V52.858z"/>
	<path fill="#FFFFFF" d="M224.571,55.216c-0.624,1.208-1.014,1.773-1.598,2.241c-0.663,0.545-1.403,0.818-2.241,0.818
		c-2.163,0-3.702-1.812-3.702-4.326c0-1.617,0.584-2.962,1.637-3.839c0.779-0.643,1.715-0.993,2.631-0.993c1.637,0,3,0.915,3,2.007
		c0,0.448-0.409,0.818-0.915,0.818c-0.429,0-0.78-0.331-0.936-0.896l-0.117-0.429c-0.194-0.721-0.448-0.936-1.149-0.936
		c-1.578,0-2.65,1.364-2.65,3.391c0,2.241,1.228,3.8,3.021,3.8c1.11,0,1.812-0.468,2.747-1.832L224.571,55.216z"/>
	<path fill="#FFFFFF" d="M233.458,55.021c-0.76,2.124-2.124,3.255-4.072,3.255c-2.3,0-3.702-1.734-3.702-4.424
		c0-2.747,1.578-4.734,4.033-4.734c1.208,0,2.085,0.467,2.709,1.344c0.39,0.546,0.584,1.17,0.662,2.222h-6.002
		c0.098,1.48,0.195,2.241,0.896,3.176c0.546,0.722,1.267,1.072,2.163,1.072c1.306,0,2.046-0.604,3.001-2.046L233.458,55.021z
		 M231.1,52.059c-0.215-1.578-0.624-2.24-1.91-2.24c-1.091,0-1.851,0.779-2.065,2.24H231.1z"/>
</g>
<g>
	<path fill="#FFFFFF" d="M175.011,61.841c0.395-0.494,0.789-0.709,1.292-0.709c0.87,0,1.498,0.798,1.498,1.911
		c0,1.301-0.816,2.306-1.884,2.306c-0.377,0-0.583-0.09-0.906-0.386v1.408c0,0.565,0.116,0.664,0.789,0.673v0.162h-2.171v-0.153
		c0.529-0.054,0.628-0.152,0.628-0.618v-4.199c0-0.422-0.062-0.512-0.368-0.512c-0.08,0-0.144,0-0.224,0.009v-0.144
		c0.493-0.152,0.816-0.269,1.292-0.457l0.054,0.018V61.841z M175.011,64.469c0,0.27,0.512,0.593,0.933,0.593
		c0.646,0,1.086-0.673,1.086-1.66c0-1.05-0.439-1.731-1.104-1.731c-0.413,0-0.915,0.323-0.915,0.592V64.469z"/>
	<path fill="#FFFFFF" d="M179.502,61.975c0.448-0.646,0.7-0.843,1.077-0.843c0.305,0,0.493,0.179,0.493,0.476
		c0,0.251-0.135,0.403-0.351,0.403c-0.116,0-0.215-0.045-0.358-0.18c-0.099-0.089-0.18-0.134-0.233-0.134
		c-0.251,0-0.628,0.448-0.628,0.735v2.019c0,0.512,0.152,0.646,0.763,0.673v0.135h-2.153v-0.135c0.574-0.107,0.637-0.17,0.637-0.619
		v-2.243c0-0.395-0.08-0.538-0.305-0.538c-0.107,0-0.188,0.009-0.314,0.036v-0.144c0.529-0.171,0.853-0.296,1.328-0.484l0.045,0.018
		V61.975z"/>
	<path fill="#FFFFFF" d="M183.197,65.349c-1.086,0-1.938-0.889-1.938-2.136s0.808-2.081,2.02-2.081c1.095,0,1.938,0.816,1.938,2.055
		C185.215,64.434,184.408,65.349,183.197,65.349z M183.959,61.831c-0.216-0.269-0.467-0.448-0.853-0.448
		c-0.619,0-1.041,0.529-1.041,1.427c0,0.709,0.144,1.354,0.476,1.839c0.197,0.287,0.484,0.449,0.808,0.449
		c0.664,0,1.059-0.629,1.059-1.669C184.408,62.818,184.247,62.199,183.959,61.831z"/>
	<path fill="#FFFFFF" d="M192.001,61.355c-0.269,0.027-0.341,0.1-0.583,0.7l-1.148,2.88c-0.135,0.332-0.197,0.449-0.251,0.449
		s-0.099-0.072-0.161-0.233c-0.027-0.045-0.036-0.108-0.072-0.188l-1.076-2.575c-0.386-0.924-0.476-1.014-0.816-1.032v-0.134h1.758
		v0.134c-0.305,0.027-0.412,0.09-0.412,0.242c0,0.09,0.026,0.207,0.08,0.342l0.915,2.297l0.889-2.324
		c0.036-0.09,0.054-0.18,0.054-0.27c0-0.17-0.135-0.26-0.422-0.287v-0.134h1.247V61.355z"/>
	<path fill="#FFFFFF" d="M196.466,61.355c-0.215,0.027-0.323,0.126-0.448,0.458l-1.346,3.67c-0.467,1.273-0.889,1.731-1.57,1.731
		c-0.386,0-0.628-0.225-0.628-0.521c0-0.225,0.17-0.413,0.386-0.413c0.161,0,0.305,0.027,0.466,0.117
		c0.1,0.054,0.18,0.062,0.233,0.062c0.126,0,0.306-0.18,0.449-0.395c0.179-0.261,0.358-0.825,0.358-0.969
		c0-0.135-0.206-0.548-0.377-0.906l-1.184-2.53c-0.09-0.197-0.242-0.278-0.476-0.314v-0.125h1.839v0.134
		c-0.386,0.019-0.512,0.081-0.512,0.242c0,0.1,0.063,0.243,0.117,0.368l1.005,2.243l0.87-2.477c0.027-0.062,0.036-0.125,0.036-0.161
		c0-0.144-0.135-0.216-0.413-0.216v-0.134h1.193V61.355z"/>
	<path fill="#FFFFFF" d="M199.155,65.259v-0.135c0.52-0.054,0.609-0.161,0.609-0.78v-1.776c0-0.628-0.224-0.951-0.664-0.951
		c-0.358,0-0.628,0.152-1.005,0.565v2.162c0,0.619,0.09,0.727,0.61,0.78v0.135h-1.938v-0.135c0.521-0.071,0.574-0.152,0.574-0.78
		v-4.226c0-0.386-0.072-0.458-0.458-0.458c-0.036,0-0.081,0-0.107,0.009v-0.144l0.242-0.071c0.512-0.153,0.718-0.216,1.031-0.323
		l0.045,0.027v2.727c0.413-0.538,0.79-0.753,1.319-0.753c0.735,0,1.104,0.484,1.104,1.427v1.785c0,0.619,0.054,0.69,0.538,0.78
		v0.135H199.155z"/>
	<path fill="#FFFFFF" d="M201.358,65.259v-0.135c0.565-0.045,0.69-0.197,0.69-0.69v-4.208c0-0.431-0.09-0.574-0.377-0.574
		c-0.071,0-0.188,0-0.331,0.018v-0.144c0.618-0.152,0.95-0.242,1.417-0.395l0.045,0.036v5.312c0,0.493,0.099,0.609,0.673,0.646
		v0.135H201.358z"/>
	<path fill="#FFFFFF" d="M207.466,63.851c-0.351,0.978-0.979,1.498-1.876,1.498c-1.059,0-1.704-0.799-1.704-2.037
		c0-1.265,0.727-2.18,1.857-2.18c0.556,0,0.96,0.215,1.247,0.619c0.179,0.251,0.269,0.538,0.305,1.022h-2.764
		c0.045,0.682,0.09,1.032,0.413,1.463c0.251,0.332,0.583,0.493,0.996,0.493c0.601,0,0.941-0.278,1.381-0.942L207.466,63.851z
		 M206.38,62.486c-0.099-0.727-0.287-1.031-0.88-1.031c-0.502,0-0.852,0.358-0.95,1.031H206.38z"/>
	<path fill="#FFFFFF" d="M210.728,65.349l-0.035-0.027v-0.574c-0.306,0.422-0.646,0.602-1.148,0.602c-0.996,0-1.66-0.78-1.66-1.929
		c0-1.274,0.834-2.288,1.866-2.288c0.359,0,0.602,0.099,0.942,0.386v-1.399c0-0.368-0.081-0.458-0.413-0.458
		c-0.071,0-0.126,0-0.197,0.009v-0.144c0.574-0.152,0.889-0.242,1.319-0.395l0.045,0.018v5.088c0,0.412,0.071,0.511,0.395,0.511
		c0.045,0,0.054,0,0.206-0.009v0.144L210.728,65.349z M210.693,62.28c0-0.476-0.431-0.897-0.915-0.897
		c-0.683,0-1.122,0.664-1.122,1.678c0,1.104,0.484,1.821,1.238,1.821c0.278,0,0.503-0.099,0.664-0.287
		c0.081-0.09,0.135-0.188,0.135-0.251V62.28z"/>
	<path fill="#FFFFFF" d="M216.09,64.918c-0.27,0.341-0.503,0.431-0.808,0.431c-0.332,0-0.529-0.18-0.574-0.655H214.7
		c-0.476,0.538-0.915,0.655-1.301,0.655c-0.557,0-0.942-0.341-0.942-0.934c0-0.466,0.278-0.816,0.628-1.05
		c0.27-0.179,0.602-0.35,1.615-0.727v-0.484c0-0.557-0.296-0.808-0.7-0.808c-0.358,0-0.628,0.197-0.628,0.439
		c0,0.162,0.054,0.188,0.054,0.377c0,0.171-0.18,0.368-0.412,0.368c-0.188,0-0.387-0.171-0.387-0.413
		c0-0.233,0.145-0.521,0.458-0.718c0.251-0.161,0.628-0.269,1.032-0.269c0.502,0,0.843,0.144,1.059,0.403
		c0.215,0.261,0.251,0.449,0.251,0.996v1.714c0,0.412,0.116,0.592,0.278,0.592c0.144,0,0.233-0.045,0.386-0.17V64.918z
		 M214.7,62.854c-0.557,0.197-0.925,0.386-1.148,0.592c-0.216,0.197-0.306,0.413-0.306,0.691c0,0.476,0.27,0.69,0.619,0.69
		c0.18,0,0.368-0.045,0.521-0.144c0.261-0.18,0.314-0.305,0.314-0.565V62.854z"/>
	<path fill="#FFFFFF" d="M220.097,61.355c-0.269,0.027-0.341,0.1-0.583,0.7l-1.148,2.88c-0.135,0.332-0.197,0.449-0.251,0.449
		s-0.099-0.072-0.161-0.233c-0.027-0.045-0.036-0.108-0.072-0.188l-1.076-2.575c-0.386-0.924-0.476-1.014-0.816-1.032v-0.134h1.758
		v0.134c-0.305,0.027-0.412,0.09-0.412,0.242c0,0.09,0.026,0.207,0.08,0.342l0.915,2.297l0.889-2.324
		c0.036-0.09,0.054-0.18,0.054-0.27c0-0.17-0.135-0.26-0.422-0.287v-0.134h1.247V61.355z"/>
	<path fill="#FFFFFF" d="M224.087,64.918c-0.27,0.341-0.503,0.431-0.808,0.431c-0.332,0-0.529-0.18-0.574-0.655h-0.009
		c-0.476,0.538-0.915,0.655-1.301,0.655c-0.557,0-0.942-0.341-0.942-0.934c0-0.466,0.278-0.816,0.628-1.05
		c0.27-0.179,0.602-0.35,1.615-0.727v-0.484c0-0.557-0.296-0.808-0.7-0.808c-0.358,0-0.628,0.197-0.628,0.439
		c0,0.162,0.054,0.188,0.054,0.377c0,0.171-0.18,0.368-0.412,0.368c-0.188,0-0.386-0.171-0.386-0.413
		c0-0.233,0.143-0.521,0.457-0.718c0.251-0.161,0.628-0.269,1.032-0.269c0.502,0,0.843,0.144,1.059,0.403
		c0.215,0.261,0.251,0.449,0.251,0.996v1.714c0,0.412,0.116,0.592,0.278,0.592c0.144,0,0.233-0.045,0.386-0.17V64.918z
		 M222.697,62.854c-0.557,0.197-0.924,0.386-1.148,0.592c-0.216,0.197-0.306,0.413-0.306,0.691c0,0.476,0.27,0.69,0.619,0.69
		c0.18,0,0.368-0.045,0.521-0.144c0.261-0.18,0.314-0.305,0.314-0.565V62.854z"/>
	<path fill="#FFFFFF" d="M227.798,63.939c-0.287,0.557-0.467,0.816-0.735,1.032c-0.306,0.251-0.646,0.377-1.032,0.377
		c-0.996,0-1.704-0.835-1.704-1.992c0-0.744,0.269-1.363,0.753-1.768c0.359-0.296,0.79-0.457,1.212-0.457
		c0.753,0,1.382,0.422,1.382,0.924c0,0.206-0.188,0.377-0.422,0.377c-0.197,0-0.359-0.152-0.431-0.413l-0.054-0.197
		c-0.09-0.332-0.207-0.431-0.529-0.431c-0.728,0-1.221,0.628-1.221,1.562c0,1.031,0.565,1.749,1.391,1.749
		c0.512,0,0.835-0.215,1.266-0.843L227.798,63.939z M226.542,60.71h-0.574l-1.104-1.498h0.314l1.076,0.924l1.086-0.924h0.313
		L226.542,60.71z"/>
	<path fill="#FFFFFF" d="M231.886,63.851c-0.35,0.978-0.978,1.498-1.875,1.498c-1.059,0-1.704-0.799-1.704-2.037
		c0-1.265,0.727-2.18,1.856-2.18c0.557,0,0.961,0.215,1.248,0.619c0.179,0.251,0.269,0.538,0.305,1.022h-2.764
		c0.045,0.682,0.09,1.032,0.413,1.463c0.251,0.332,0.583,0.493,0.996,0.493c0.601,0,0.941-0.278,1.382-0.942L231.886,63.851z
		 M230.801,62.486c-0.099-0.727-0.287-1.031-0.88-1.031c-0.502,0-0.852,0.358-0.95,1.031H230.801z"/>
</g>
<circle fill="#009FE3" cx="73.346" cy="47.27" r="1.724"/>
</svg>
