<?xml version="1.0" encoding="utf-8"?>
<!-- Generator: Adobe Illustrator 15.1.0, SVG Export Plug-In . SVG Version: 6.00 Build 0)  -->
<!DOCTYPE svg PUBLIC "-//W3C//DTD SVG 1.1//EN" "http://www.w3.org/Graphics/SVG/1.1/DTD/svg11.dtd">
<svg version="1.1" id="Layer_1" xmlns="http://www.w3.org/2000/svg" xmlns:xlink="http://www.w3.org/1999/xlink" x="0px" y="0px"
	 width="125px" height="25px" viewBox="182.5 245.375 125 25" enable-background="new 182.5 245.375 125 25" xml:space="preserve">
<text transform="matrix(1 0 0 1 183.8743 263.1658)" fill="#2894D5" font-family="'Roboto-Light'" font-size="17.1218">DOWNLOAD</text>
<g>
	<g>
		<polygon fill="#2894D5" points="289.253,265.19 288.604,265.83 292.783,269.951 296.968,265.83 296.316,265.19 293.244,268.21 
			293.244,254.621 292.323,254.621 292.323,268.21 		"/>
	</g>
	<g>
		<path fill="#2894D5" d="M300.819,253.02c0-0.068,0.011-0.13,0.011-0.196c0-3.565-2.969-6.451-6.558-6.451
			c-2.587,0-4.816,1.505-5.859,3.671c-0.456-0.224-0.96-0.353-1.507-0.353c-1.661,0-3.036,1.307-3.305,2.88
			c-1.976,0.673-3.402,2.435-3.402,4.625c0,2.758,2.251,5.009,5.03,5.009h5.137v-0.899h-5.093c-2.296,0-4.164-1.863-4.164-4.137
			c0-1.762,1.134-3.227,2.818-3.8l0.472-0.156l0.083-0.489c0.202-1.196,1.24-2.178,2.465-2.178c0.389,0,0.769,0.088,1.116,0.263
			l0.758,0.376l0.365-0.764c0.932-1.931,2.925-3.177,5.075-3.177c3.105,0,5.665,2.403,5.665,5.479c0,0.735-0.012,1.127-0.012,1.127
			l0.852,0.006c2.062,0.028,3.684,1.684,3.684,3.727c0,2.039-1.672,3.711-3.733,3.722l-0.179,0.007h-5.457v0.896h5.67l0,0
			c2.526,0,4.599-2.087,4.599-4.609C305.349,255.074,303.362,253.024,300.819,253.02z"/>
	</g>
</g>
</svg>
